…
Now we can annotate the table. The idea here is that each row will have a nested table with annotations from the compound table.

``` r
library(purrr)
peaklist_anno <- peaklist %>% mutate(anno = map(mz, cmp_mz_filter, cmp_tbl_exp_pos, ppm=30))
```

How the peaktable looks like this:

``` r
peaklist_anno %>% select(-mzmin, -mzmax, -rtmin, -rtmax, -npeaks)
## # A tibble: 49 x 6
##          mz       rt   isotopes
##       <dbl>    <dbl>      <chr>
##  1 119.0861 480.2640       <NA>
##  2 129.0548 682.1079       <NA>
##  3 147.0654 682.1068       <NA>
##  4 247.2419 796.0284       <NA>
##  5 259.1905 682.0464       <NA>
##  6 265.2527 795.9556   [31][M]+
##  7 266.2557 795.9540 [31][M+1]+
##  8 308.2944 796.7262       <NA>
##  9 321.2777 796.0501       <NA>
## 10 339.3451 795.8738       <NA>
## # ... with 39 more rows, and 3 more variables: adduct <chr>,
## #   pcgroup <int>, anno <list>
```
…
